[
        {
                "type": "string",
                "title": "Action Bar Top/Bottom",
                "desc": "Change the action bar to 'top' or 'bottom'?  Default is bottom.",
                "section": "Interface Settings",
                "key":"actbarpos"
        },
	{
		"type": "path",
		"title": "Bacground Image",
		"desc": "Add/Change the background image with path to filename.",
		"section": "Interface Settings",
		"key": "background"
	}
]
