[
        {
                "type": "numeric",
                "title": "Maximum Number of uploads per Frame.",
                "desc": "Change maxup by integer.  Default is 2.",
                "section": "Thread Settings",
                "key":"maxup"
        },
	{
		"type": "numeric",
		"title": "Maximum Number of Workers",
		"desc": "Change number of workers on threads by integer.  Default is 2.",
		"section": "Thread Settings",
		"key": "numwrks"
	}
]
